{
  "v": "5.5.7",
  "meta": {"g": "LottieFiles AE 0.1.21", "a": "", "k": "", "d": "", "tc": ""},
  "fr": 60,
  "ip": 0,
  "op": 120,
  "w": 800,
  "h": 600,
  "nm": "Comp 3",
  "ddd": 0,
  "assets": [],
  "layers": [
    {
      "ddd": 0,
      "ind": 1,
      "ty": 4,
      "nm": "Shape2",
      "sr": 1,
      "ks": {
        "o": {
          "a": 1,
          "k": [
            {
              "i": {"x": [0.833], "y": [0.833]},
              "o": {"x": [0.167], "y": [0.167]},
              "t": 0,
              "s": [0]
            },
            {
              "i": {"x": [0.833], "y": [0.833]},
              "o": {"x": [0.167], "y": [0.167]},
              "t": 30,
              "s": [100]
            },
            {"t": 60, "s": [0]}
          ],
          "ix": 11
        },
        "r": {"a": 0, "k": 90, "ix": 10},
        "p": {
          "a": 1,
          "k": [
            {
              "i": {"x": 0.833, "y": 0.833},
              "o": {"x": 0.167, "y": 0.167},
              "t": 0,
              "s": [401.309, 357, 0],
              "to": [0, -19, 0],
              "ti": [0, 35.667, 0]
            },
            {
              "i": {"x": 0.833, "y": 0.833},
              "o": {"x": 0.167, "y": 0.167},
              "t": 30,
              "s": [401.309, 243, 0],
              "to": [0, -35.667, 0],
              "ti": [0, -26.167, 0]
            },
            {
              "i": {"x": 0.833, "y": 0.833},
              "o": {"x": 0.167, "y": 0.167},
              "t": 60,
              "s": [401.309, 143, 0],
              "to": [0, 26.167, 0],
              "ti": [0, -42.833, 0]
            },
            {"t": 90, "s": [401.309, 400, 0]}
          ],
          "ix": 2
        },
        "a": {"a": 0, "k": [56.983, 102.57, 0], "ix": 1},
        "s": {"a": 0, "k": [100, 100, 100], "ix": 6}
      },
      "ao": 0,
      "shapes": [
        {
          "ty": "gr",
          "it": [
            {
              "ind": 0,
              "ty": "sh",
              "ix": 1,
              "ks": {
                "a": 0,
                "k": {
                  "i": [
                    [0, 0],
                    [0, 0],
                    [1.33, 5.743],
                    [5.209, 1.467],
                    [3.665, -4.336],
                    [0, 0],
                    [0, 0],
                    [0, 0],
                    [-5.209, 1.467],
                    [-1.33, 5.743],
                    [3.933, 4.041]
                  ],
                  "o": [
                    [0, 0],
                    [3.933, -4.041],
                    [-1.33, -5.743],
                    [-5.209, -1.467],
                    [0, 0],
                    [0, 0],
                    [0, 0],
                    [3.665, 4.336],
                    [5.209, -1.467],
                    [1.33, -5.743],
                    [0, 0]
                  ],
                  "v": [
                    [41.46, 102.516],
                    [108.992, 28.067],
                    [113.215, 12.198],
                    [102.608, 0.504],
                    [88.213, 5.159],
                    [0, 102.408],
                    [22.641, 127.368],
                    [88.507, 199.98],
                    [102.902, 204.635],
                    [113.509, 192.941],
                    [109.287, 177.073]
                  ],
                  "c": true
                },
                "ix": 2
              },
              "nm": "Path 1",
              "mn": "ADBE Vector Shape - Group",
              "hd": false
            },
            {
              "ty": "op",
              "nm": "Offset Paths 1",
              "a": {"a": 0, "k": -0.5, "ix": 1},
              "lj": 1,
              "ml": {"a": 0, "k": 4, "ix": 3},
              "ix": 3,
              "mn": "ADBE Vector Filter - Offset",
              "hd": false
            },
            {
              "ty": "tr",
              "p": {"a": 0, "k": [0, 0], "ix": 2},
              "a": {"a": 0, "k": [0, 0], "ix": 1},
              "s": {"a": 0, "k": [100, 100], "ix": 3},
              "r": {"a": 0, "k": 0, "ix": 6},
              "o": {"a": 0, "k": 100, "ix": 7},
              "sk": {"a": 0, "k": 0, "ix": 4},
              "sa": {"a": 0, "k": 0, "ix": 5},
              "nm": "Transform"
            }
          ],
          "nm": "Shape2 Stroke",
          "np": 3,
          "cix": 2,
          "bm": 0,
          "ix": 1,
          "mn": "ADBE Vector Group",
          "hd": false
        },
        {
          "ty": "gr",
          "it": [
            {
              "ind": 0,
              "ty": "sh",
              "ix": 1,
              "ks": {
                "a": 0,
                "k": {
                  "i": [
                    [0, 0],
                    [0, 0],
                    [1.33, 5.743],
                    [5.209, 1.467],
                    [3.665, -4.336],
                    [0, 0],
                    [0, 0],
                    [0, 0],
                    [-5.209, 1.467],
                    [-1.33, 5.743],
                    [3.933, 4.041]
                  ],
                  "o": [
                    [0, 0],
                    [3.933, -4.041],
                    [-1.33, -5.743],
                    [-5.209, -1.467],
                    [0, 0],
                    [0, 0],
                    [0, 0],
                    [3.665, 4.336],
                    [5.209, -1.467],
                    [1.33, -5.743],
                    [0, 0]
                  ],
                  "v": [
                    [41.46, 102.516],
                    [108.992, 28.067],
                    [113.215, 12.198],
                    [102.608, 0.504],
                    [88.213, 5.159],
                    [0, 102.408],
                    [22.641, 127.368],
                    [88.507, 199.98],
                    [102.902, 204.635],
                    [113.509, 192.941],
                    [109.287, 177.073]
                  ],
                  "c": true
                },
                "ix": 2
              },
              "nm": "Path 1",
              "mn": "ADBE Vector Shape - Group",
              "hd": false
            },
            {
              "ty": "fl",
              "c": {"a": 0, "k": [1, 1, 1, 1], "ix": 4},
              "o": {"a": 0, "k": 100, "ix": 5},
              "r": 1,
              "bm": 0,
              "nm": "Fill 1",
              "mn": "ADBE Vector Graphic - Fill",
              "hd": false
            },
            {
              "ty": "tr",
              "p": {"a": 0, "k": [0, 0], "ix": 2},
              "a": {"a": 0, "k": [0, 0], "ix": 1},
              "s": {"a": 0, "k": [100, 100], "ix": 3},
              "r": {"a": 0, "k": 0, "ix": 6},
              "o": {"a": 0, "k": 100, "ix": 7},
              "sk": {"a": 0, "k": 0, "ix": 4},
              "sa": {"a": 0, "k": 0, "ix": 5},
              "nm": "Transform"
            }
          ],
          "nm": "Shape2 Fill",
          "np": 2,
          "cix": 2,
          "bm": 0,
          "ix": 2,
          "mn": "ADBE Vector Group",
          "hd": false
        }
      ],
      "ip": 0,
      "op": 3600,
      "st": 0,
      "bm": 0
    },
    {
      "ddd": 0,
      "ind": 2,
      "ty": 4,
      "nm": "Shape3",
      "sr": 1,
      "ks": {
        "o": {
          "a": 1,
          "k": [
            {
              "i": {"x": [0.833], "y": [0.833]},
              "o": {"x": [0.167], "y": [0.167]},
              "t": 30,
              "s": [0]
            },
            {
              "i": {"x": [0.833], "y": [0.833]},
              "o": {"x": [0.167], "y": [0.167]},
              "t": 60,
              "s": [100]
            },
            {"t": 90, "s": [0]}
          ],
          "ix": 11
        },
        "r": {"a": 0, "k": 90, "ix": 10},
        "p": {
          "a": 1,
          "k": [
            {
              "i": {"x": 0.833, "y": 0.833},
              "o": {"x": 0.167, "y": 0.167},
              "t": 0,
              "s": [400.309, 400, 0],
              "to": [0, -9.5, 0],
              "ti": [0, 26.167, 0]
            },
            {
              "i": {"x": 0.833, "y": 0.833},
              "o": {"x": 0.167, "y": 0.167},
              "t": 30,
              "s": [400.309, 343, 0],
              "to": [0, -26.167, 0],
              "ti": [0, 33.333, 0]
            },
            {
              "i": {"x": 0.833, "y": 0.833},
              "o": {"x": 0.167, "y": 0.167},
              "t": 60,
              "s": [400.309, 243, 0],
              "to": [0, -33.333, 0],
              "ti": [0, 16.667, 0]
            },
            {"t": 90, "s": [400.309, 143, 0]}
          ],
          "ix": 2
        },
        "a": {"a": 0, "k": [56.983, 102.57, 0], "ix": 1},
        "s": {"a": 0, "k": [100, 100, 100], "ix": 6}
      },
      "ao": 0,
      "shapes": [
        {
          "ty": "gr",
          "it": [
            {
              "ind": 0,
              "ty": "sh",
              "ix": 1,
              "ks": {
                "a": 0,
                "k": {
                  "i": [
                    [0, 0],
                    [0, 0],
                    [1.33, 5.743],
                    [5.209, 1.467],
                    [3.665, -4.336],
                    [0, 0],
                    [0, 0],
                    [0, 0],
                    [-5.209, 1.467],
                    [-1.33, 5.743],
                    [3.933, 4.041]
                  ],
                  "o": [
                    [0, 0],
                    [3.933, -4.041],
                    [-1.33, -5.743],
                    [-5.209, -1.467],
                    [0, 0],
                    [0, 0],
                    [0, 0],
                    [3.665, 4.336],
                    [5.209, -1.467],
                    [1.33, -5.743],
                    [0, 0]
                  ],
                  "v": [
                    [41.46, 102.516],
                    [108.992, 28.067],
                    [113.215, 12.198],
                    [102.608, 0.504],
                    [88.213, 5.159],
                    [0, 102.408],
                    [22.641, 127.368],
                    [88.507, 199.98],
                    [102.902, 204.635],
                    [113.509, 192.941],
                    [109.287, 177.073]
                  ],
                  "c": true
                },
                "ix": 2
              },
              "nm": "Path 1",
              "mn": "ADBE Vector Shape - Group",
              "hd": false
            },
            {
              "ty": "op",
              "nm": "Offset Paths 1",
              "a": {"a": 0, "k": -0.5, "ix": 1},
              "lj": 1,
              "ml": {"a": 0, "k": 4, "ix": 3},
              "ix": 3,
              "mn": "ADBE Vector Filter - Offset",
              "hd": false
            },
            {
              "ty": "tr",
              "p": {"a": 0, "k": [0, 0], "ix": 2},
              "a": {"a": 0, "k": [0, 0], "ix": 1},
              "s": {"a": 0, "k": [100, 100], "ix": 3},
              "r": {"a": 0, "k": 0, "ix": 6},
              "o": {"a": 0, "k": 100, "ix": 7},
              "sk": {"a": 0, "k": 0, "ix": 4},
              "sa": {"a": 0, "k": 0, "ix": 5},
              "nm": "Transform"
            }
          ],
          "nm": "Shape3 Stroke",
          "np": 3,
          "cix": 2,
          "bm": 0,
          "ix": 1,
          "mn": "ADBE Vector Group",
          "hd": false
        },
        {
          "ty": "gr",
          "it": [
            {
              "ind": 0,
              "ty": "sh",
              "ix": 1,
              "ks": {
                "a": 0,
                "k": {
                  "i": [
                    [0, 0],
                    [0, 0],
                    [1.33, 5.743],
                    [5.209, 1.467],
                    [3.665, -4.336],
                    [0, 0],
                    [0, 0],
                    [0, 0],
                    [-5.209, 1.467],
                    [-1.33, 5.743],
                    [3.933, 4.041]
                  ],
                  "o": [
                    [0, 0],
                    [3.933, -4.041],
                    [-1.33, -5.743],
                    [-5.209, -1.467],
                    [0, 0],
                    [0, 0],
                    [0, 0],
                    [3.665, 4.336],
                    [5.209, -1.467],
                    [1.33, -5.743],
                    [0, 0]
                  ],
                  "v": [
                    [41.46, 102.516],
                    [108.992, 28.067],
                    [113.215, 12.198],
                    [102.608, 0.504],
                    [88.213, 5.159],
                    [0, 102.408],
                    [22.641, 127.368],
                    [88.507, 199.98],
                    [102.902, 204.635],
                    [113.509, 192.941],
                    [109.287, 177.073]
                  ],
                  "c": true
                },
                "ix": 2
              },
              "nm": "Path 1",
              "mn": "ADBE Vector Shape - Group",
              "hd": false
            },
            {
              "ty": "fl",
              "c": {"a": 0, "k": [1, 1, 1, 1], "ix": 4},
              "o": {"a": 0, "k": 100, "ix": 5},
              "r": 1,
              "bm": 0,
              "nm": "Fill 1",
              "mn": "ADBE Vector Graphic - Fill",
              "hd": false
            },
            {
              "ty": "tr",
              "p": {"a": 0, "k": [0, 0], "ix": 2},
              "a": {"a": 0, "k": [0, 0], "ix": 1},
              "s": {"a": 0, "k": [100, 100], "ix": 3},
              "r": {"a": 0, "k": 0, "ix": 6},
              "o": {"a": 0, "k": 100, "ix": 7},
              "sk": {"a": 0, "k": 0, "ix": 4},
              "sa": {"a": 0, "k": 0, "ix": 5},
              "nm": "Transform"
            }
          ],
          "nm": "Shape3 Fill",
          "np": 2,
          "cix": 2,
          "bm": 0,
          "ix": 2,
          "mn": "ADBE Vector Group",
          "hd": false
        }
      ],
      "ip": 0,
      "op": 3600,
      "st": 0,
      "bm": 0
    }
  ],
  "markers": []
}
